STAT 331 Group Project
…
2.2 Linear Regression

# A tibble: 195 × 3
   country             mean_life mean_school
   <chr>                   <dbl>       <dbl>
 1 Afghanistan              52.2        1.12
 2 Albania                  73.7        8.18
 3 Algeria                  66.8        6.70
 4 Andorra                  79.7       13.0 
 5 Angola                   52.1        3.45
 6 Antigua and Barbuda      73.6       11.6 
 7 Argentina                72.4        9.69
 8 Armenia                  70.8        8.91
 9 Australia                77.5       12.1 
10 Austria                  76.3        9.33
# ℹ 185 more rows
…
